simWorkspace/GTP_TEST/test.vcd
$version Generated by VerilatedVcd $end
$date Tue Mar 15 10:02:30 2022
 $end
$timescale   1ns $end

 $scope module TOP $end
  $var wire  1 u! log_clk $end
  $var wire  1 m! log_rst_q $end
  $var wire 32 }! s_axi_tx_tdata [31:0] $end
  $var wire  1 '" s_axi_tx_tlast $end
  $var wire  1 7" s_axi_tx_tready $end
  $var wire  1 /" s_axi_tx_tvalid $end
  $scope module GTP_TEST $end
   $var wire 32 -! gtx_area_gtxtest_crc_data [31:0] $end
   $var wire 32 + gtx_area_gtxtest_s_axi_tx_tdata [31:0] $end
   $var wire  4 G" gtx_area_gtxtest_s_axi_tx_tkeep [3:0] $end
   $var wire  1 C gtx_area_gtxtest_s_axi_tx_tlast $end
   $var wire  1 K gtx_area_gtxtest_s_axi_tx_tvalid $end
   $var wire  8 3 gtx_area_gtxtest_tx_packet_addra [7:0] $end
   $var wire 32 k gtx_area_gtxtest_tx_packet_data [31:0] $end
   $var wire  1 ?" gtx_area_gtxtest_tx_packet_rden $end
   $var wire  1 # gtx_area_gtxtest_tx_packet_req $end
   $var wire  1 U! gtx_area_timer_B_io_clear $end
   $var wire  1 c gtx_area_timer_B_io_full $end
   $var wire  1 s gtx_area_timer_B_io_full_delay_1 $end
   $var wire  1 s gtx_area_timer_B_io_full_delay_1_1 $end
   $var wire  1 s gtx_area_timer_B_io_full_delay_1_2 $end
   $var wire  1 { gtx_area_timer_B_io_full_delay_2 $end
   $var wire  1 { gtx_area_timer_B_io_full_delay_2_1 $end
   $var wire  1 %! gtx_area_timer_B_io_full_delay_3 $end
   $var wire 32 ]! gtx_area_timer_B_io_value [31:0] $end
   $var wire  1 u! log_clk $end
   $var wire  1 m! log_rst_q $end
   $var wire 32 }! s_axi_tx_tdata [31:0] $end
   $var wire  1 '" s_axi_tx_tlast $end
   $var wire  1 7" s_axi_tx_tready $end
   $var wire  1 /" s_axi_tx_tvalid $end
   $var wire  1 U! when_GTX_TEST_l45 $end
   $scope module gtx_area_gtxtest $end
    $var wire  9 w" IDLE [8:0] $end
    $var wire  9 A# TX_CHECK [8:0] $end
    $var wire  9 9# TX_DATA [8:0] $end
    $var wire  9 I# TX_END [8:0] $end
    $var wire  9 )# TX_GTXID [8:0] $end
    $var wire  9 !# TX_HEAD [8:0] $end
    $var wire  9 1# TX_LENGTH [8:0] $end
    $var wire  9 Q# TX_TRIGGER [8:0] $end
    $var wire  9 Y# TX_TRIGGER_END [8:0] $end
    $var wire 32 -! crc_data [31:0] $end
    $var wire  6 E! current_beat_cnt [5:0] $end
    $var wire  9 =! current_state [8:0] $end
    $var wire  1 [ ireq_advance_condition $end
    $var wire  1 u! log_clk $end
    $var wire  1 m! log_rst_q $end
    $var wire  9 S next_state [8:0] $end
    $var wire 32 + s_axi_tx_tdata [31:0] $end
    $var wire  4 G" s_axi_tx_tkeep [3:0] $end
    $var wire  1 C s_axi_tx_tlast $end
    $var wire  1 7" s_axi_tx_tready $end
    $var wire  1 K s_axi_tx_tvalid $end
    $var wire  8 M! tx_addr_temp [7:0] $end
    $var wire  6 ; tx_byte_cnt [5:0] $end
    $var wire  8 3 tx_packet_addra [7:0] $end
    $var wire 32 k tx_packet_data [31:0] $end
    $var wire 32 _" tx_packet_gtxid [31:0] $end
    $var wire 32 g" tx_packet_head [31:0] $end
    $var wire  1 ?" tx_packet_rden $end
    $var wire  1 # tx_packet_req $end
    $var wire  1 o" tx_packet_trigger $end
   $upscope $end
   $scope module gtx_area_timer_B $end
    $var wire 32 ]! counter [31:0] $end
    $var wire  1 5! inhibitFull $end
    $var wire  1 U! io_clear $end
    $var wire  1 c io_full $end
    $var wire 32 W" io_limit [31:0] $end
    $var wire  1 O" io_tick $end
    $var wire 32 ]! io_value [31:0] $end
    $var wire  1 e! limitHit $end
    $var wire  1 u! log_clk $end
    $var wire  1 m! log_rst_q $end
   $upscope $end
  $upscope $end
 $upscope $end
$enddefinitions $end


#0
1#
b00000000000000000000000000000000 +
b11111111 3
b000000 ;
0C
0K
b000000000 S
0[
0c
b01110011100110110100011011000001 k
1s
1{
0%!
b11111111111111111111111111111111 -!
05!
b000000000 =!
b000000 E!
b00000000 M!
1U!
b00000101110101011111101111001101 ]!
0e!
1m!
0u!
b00000000000000000000000000000000 }!
0'"
0/"
07"
1?"
b1111 G"
1O"
b00000000000000000000000111110100 W"
b00000000000000000000000000000001 _"
b00000000000000000000000000111011 g"
0o"
b000000000 w"
b000000001 !#
b000000010 )#
b000000100 1#
b000001000 9#
b000010000 A#
b001000000 I#
b010000000 Q#
b100000000 Y#
#160
0m!
#170
0s
1%!
0U!
b00000000000000000000000000000000 ]!
1u!
#175
0u!
#180
0{
b00000000000000000000000000000001 ]!
1u!
#185
0u!
#190
0#
0%!
b00000000000000000000000000000010 ]!
1u!
#195
0u!
#200
b00000000000000000000000000000011 ]!
1u!
#205
0u!
#210
b00000000000000000000000000000100 ]!
1u!
#215
0u!
#220
b00000000000000000000000000000101 ]!
1u!
#225
0u!
#230
b00000000000000000000000000000110 ]!
1u!
#235
0u!
#240
b00000000000000000000000000000111 ]!
1u!
#245
0u!
#250
b00000000000000000000000000001000 ]!
1u!
#255
0u!
#260
b00000000000000000000000000001001 ]!
1u!
#265
0u!
#270
b00000000000000000000000000001010 ]!
1u!
17"
#275
0u!
#280
b00000000000000000000000000001011 ]!
1u!
07"
#285
0u!
#290
b00000000000000000000000000001100 ]!
1u!
#295
0u!
#300
b00000000000000000000000000001101 ]!
1u!
#305
0u!
#310
b00000000000000000000000000001110 ]!
1u!
#315
0u!
#320
b00000000000000000000000000001111 ]!
1u!
17"
#325
0u!
#330
b00000000000000000000000000010000 ]!
1u!
#335
0u!
#340
b00000000000000000000000000010001 ]!
1u!
#345
0u!
#350
b00000000000000000000000000010010 ]!
1u!
#355
0u!
#360
b00000000000000000000000000010011 ]!
1u!
#365
0u!
#370
b00000000000000000000000000010100 ]!
1u!
#375
0u!
#380
b00000000000000000000000000010101 ]!
1u!
07"
#385
0u!
#390
b00000000000000000000000000010110 ]!
1u!
17"
#395
0u!
#400
b00000000000000000000000000010111 ]!
1u!
#405
0u!
#410
b00000000000000000000000000011000 ]!
1u!
#415
0u!
#420
b00000000000000000000000000011001 ]!
1u!
#425
0u!
#430
b00000000000000000000000000011010 ]!
1u!
#435
0u!
#440
b00000000000000000000000000011011 ]!
1u!
07"
#445
0u!
#450
b00000000000000000000000000011100 ]!
1u!
17"
#455
0u!
#460
b00000000000000000000000000011101 ]!
1u!
#465
0u!
#470
b00000000000000000000000000011110 ]!
1u!
07"
#475
0u!
#480
b00000000000000000000000000011111 ]!
1u!
#485
0u!
#490
b00000000000000000000000000100000 ]!
1u!
17"
#495
0u!
#500
b00000000000000000000000000100001 ]!
1u!
07"
#505
0u!
#510
b00000000000000000000000000100010 ]!
1u!
#515
0u!
#520
b00000000000000000000000000100011 ]!
1u!
#525
0u!
#530
b00000000000000000000000000100100 ]!
1u!
#535
0u!
#540
b00000000000000000000000000100101 ]!
1u!
#545
0u!
#550
b00000000000000000000000000100110 ]!
1u!
17"
#555
0u!
#560
b00000000000000000000000000100111 ]!
1u!
#565
0u!
#570
b00000000000000000000000000101000 ]!
1u!
07"
#575
0u!
#580
b00000000000000000000000000101001 ]!
1u!
17"
#585
0u!
#590
b00000000000000000000000000101010 ]!
1u!
#595
0u!
#600
b00000000000000000000000000101011 ]!
1u!
07"
#605
0u!
#610
b00000000000000000000000000101100 ]!
1u!
#615
0u!
#620
b00000000000000000000000000101101 ]!
1u!
17"
#625
0u!
#630
b00000000000000000000000000101110 ]!
1u!
07"
#635
0u!
#640
b00000000000000000000000000101111 ]!
1u!
#645
0u!
#650
b00000000000000000000000000110000 ]!
1u!
#655
0u!
#660
b00000000000000000000000000110001 ]!
1u!
17"
#665
0u!
#670
b00000000000000000000000000110010 ]!
1u!
07"
#675
0u!
#680
b00000000000000000000000000110011 ]!
1u!
#685
0u!
#690
b00000000000000000000000000110100 ]!
1u!
#695
0u!
#700
b00000000000000000000000000110101 ]!
1u!
17"
#705
0u!
#710
b00000000000000000000000000110110 ]!
1u!
07"
#715
0u!
#720
b00000000000000000000000000110111 ]!
1u!
17"
#725
0u!
#730
b00000000000000000000000000111000 ]!
1u!
#735
0u!
#740
b00000000000000000000000000111001 ]!
1u!
#745
0u!
#750
b00000000000000000000000000111010 ]!
1u!
#755
0u!
#760
b00000000000000000000000000111011 ]!
1u!
07"
#765
0u!
#770
b00000000000000000000000000111100 ]!
1u!
17"
#775
0u!
#780
b00000000000000000000000000111101 ]!
1u!
#785
0u!
#790
b00000000000000000000000000111110 ]!
1u!
07"
#795
0u!
#800
b00000000000000000000000000111111 ]!
1u!
#805
0u!
#810
b00000000000000000000000001000000 ]!
1u!
17"
#815
0u!
#820
b00000000000000000000000001000001 ]!
1u!
#825
0u!
#830
b00000000000000000000000001000010 ]!
1u!
#835
0u!
#840
b00000000000000000000000001000011 ]!
1u!
#845
0u!
#850
b00000000000000000000000001000100 ]!
1u!
#855
0u!
#860
b00000000000000000000000001000101 ]!
1u!
07"
#865
0u!
#870
b00000000000000000000000001000110 ]!
1u!
17"
#875
0u!
#880
b00000000000000000000000001000111 ]!
1u!
#885
0u!
#890
b00000000000000000000000001001000 ]!
1u!
07"
#895
0u!
#900
b00000000000000000000000001001001 ]!
1u!
17"
#905
0u!
#910
b00000000000000000000000001001010 ]!
1u!
07"
#915
0u!
#920
b00000000000000000000000001001011 ]!
1u!
#925
0u!
#930
b00000000000000000000000001001100 ]!
1u!
#935
0u!
#940
b00000000000000000000000001001101 ]!
1u!
#945
0u!
#950
b00000000000000000000000001001110 ]!
1u!
17"
#955
0u!
#960
b00000000000000000000000001001111 ]!
1u!
07"
#965
0u!
#970
b00000000000000000000000001010000 ]!
1u!
17"
#975
0u!
#980
b00000000000000000000000001010001 ]!
1u!
07"
#985
0u!
#990
b00000000000000000000000001010010 ]!
1u!
#995
0u!
#1000
b00000000000000000000000001010011 ]!
1u!
#1005
0u!
#1010
b00000000000000000000000001010100 ]!
1u!
17"
#1015
0u!
#1020
b00000000000000000000000001010101 ]!
1u!
07"
#1025
0u!
#1030
b00000000000000000000000001010110 ]!
1u!
17"
#1035
0u!
#1040
b00000000000000000000000001010111 ]!
1u!
07"
#1045
0u!
#1050
b00000000000000000000000001011000 ]!
1u!
17"
#1055
0u!
#1060
b00000000000000000000000001011001 ]!
1u!
#1065
0u!
#1070
b00000000000000000000000001011010 ]!
1u!
#1075
0u!
#1080
b00000000000000000000000001011011 ]!
1u!
#1085
0u!
#1090
b00000000000000000000000001011100 ]!
1u!
#1095
0u!
#1100
b00000000000000000000000001011101 ]!
1u!
07"
#1105
0u!
#1110
b00000000000000000000000001011110 ]!
1u!
17"
#1115
0u!
#1120
b00000000000000000000000001011111 ]!
1u!
07"
#1125
0u!
#1130
b00000000000000000000000001100000 ]!
1u!
17"
#1135
0u!
#1140
b00000000000000000000000001100001 ]!
1u!
07"
#1145
0u!
#1150
b00000000000000000000000001100010 ]!
1u!
17"
#1155
0u!
#1160
b00000000000000000000000001100011 ]!
1u!
07"
#1165
0u!
#1170
b00000000000000000000000001100100 ]!
1u!
17"
#1175
0u!
#1180
b00000000000000000000000001100101 ]!
1u!
07"
#1185
0u!
#1190
b00000000000000000000000001100110 ]!
1u!
#1195
0u!
#1200
b00000000000000000000000001100111 ]!
1u!
17"
#1205
0u!
#1210
b00000000000000000000000001101000 ]!
1u!
#1215
0u!
#1220
b00000000000000000000000001101001 ]!
1u!
#1225
0u!
#1230
b00000000000000000000000001101010 ]!
1u!
#1235
0u!
#1240
b00000000000000000000000001101011 ]!
1u!
07"
#1245
0u!
#1250
b00000000000000000000000001101100 ]!
1u!
17"
#1255
0u!
#1260
b00000000000000000000000001101101 ]!
1u!
#1265
0u!
#1270
b00000000000000000000000001101110 ]!
1u!
#1275
0u!
#1280
b00000000000000000000000001101111 ]!
1u!
07"
#1285
0u!
#1290
b00000000000000000000000001110000 ]!
1u!
#1295
0u!
#1300
b00000000000000000000000001110001 ]!
1u!
17"
#1305
0u!
#1310
b00000000000000000000000001110010 ]!
1u!
07"
#1315
0u!
#1320
b00000000000000000000000001110011 ]!
1u!
#1325
0u!
#1330
b00000000000000000000000001110100 ]!
1u!
17"
#1335
0u!
#1340
b00000000000000000000000001110101 ]!
1u!
07"
#1345
0u!
#1350
b00000000000000000000000001110110 ]!
1u!
17"
#1355
0u!
#1360
b00000000000000000000000001110111 ]!
1u!
#1365
0u!
#1370
b00000000000000000000000001111000 ]!
1u!
07"
#1375
0u!
#1380
b00000000000000000000000001111001 ]!
1u!
17"
#1385
0u!
#1390
b00000000000000000000000001111010 ]!
1u!
#1395
0u!
#1400
b00000000000000000000000001111011 ]!
1u!
#1405
0u!
#1410
b00000000000000000000000001111100 ]!
1u!
07"
#1415
0u!
#1420
b00000000000000000000000001111101 ]!
1u!
#1425
0u!
#1430
b00000000000000000000000001111110 ]!
1u!
#1435
0u!
#1440
b00000000000000000000000001111111 ]!
1u!
#1445
0u!
#1450
b00000000000000000000000010000000 ]!
1u!
17"
#1455
0u!
#1460
b00000000000000000000000010000001 ]!
1u!
#1465
0u!
#1470
b00000000000000000000000010000010 ]!
1u!
07"
#1475
0u!
#1480
b00000000000000000000000010000011 ]!
1u!
#1485
0u!
#1490
b00000000000000000000000010000100 ]!
1u!
17"
#1495
0u!
#1500
b00000000000000000000000010000101 ]!
1u!
#1505
0u!
#1510
b00000000000000000000000010000110 ]!
1u!
#1515
0u!
#1520
b00000000000000000000000010000111 ]!
1u!
07"
#1525
0u!
#1530
b00000000000000000000000010001000 ]!
1u!
17"
#1535
0u!
#1540
b00000000000000000000000010001001 ]!
1u!
#1545
0u!
#1550
b00000000000000000000000010001010 ]!
1u!
07"
#1555
0u!
#1560
b00000000000000000000000010001011 ]!
1u!
#1565
0u!
#1570
b00000000000000000000000010001100 ]!
1u!
#1575
0u!
#1580
b00000000000000000000000010001101 ]!
1u!
17"
#1585
0u!
#1590
b00000000000000000000000010001110 ]!
1u!
07"
#1595
0u!
#1600
b00000000000000000000000010001111 ]!
1u!
#1605
0u!
#1610
b00000000000000000000000010010000 ]!
1u!
17"
#1615
0u!
#1620
b00000000000000000000000010010001 ]!
1u!
#1625
0u!
#1630
b00000000000000000000000010010010 ]!
1u!
#1635
0u!
#1640
b00000000000000000000000010010011 ]!
1u!
#1645
0u!
#1650
b00000000000000000000000010010100 ]!
1u!
#1655
0u!
#1660
b00000000000000000000000010010101 ]!
1u!
#1665
0u!
#1670
b00000000000000000000000010010110 ]!
1u!
#1675
0u!
#1680
b00000000000000000000000010010111 ]!
1u!
07"
#1685
0u!
#1690
b00000000000000000000000010011000 ]!
1u!
#1695
0u!
#1700
b00000000000000000000000010011001 ]!
1u!
#1705
0u!
#1710
b00000000000000000000000010011010 ]!
1u!
17"
#1715
0u!
#1720
b00000000000000000000000010011011 ]!
1u!
07"
#1725
0u!
#1730
b00000000000000000000000010011100 ]!
1u!
17"
#1735
0u!
#1740
b00000000000000000000000010011101 ]!
1u!
07"
#1745
0u!
#1750
b00000000000000000000000010011110 ]!
1u!
17"
#1755
0u!
#1760
b00000000000000000000000010011111 ]!
1u!
#1765
0u!
#1770
b00000000000000000000000010100000 ]!
1u!
#1775
0u!
#1780
b00000000000000000000000010100001 ]!
1u!
07"
#1785
0u!
#1790
b00000000000000000000000010100010 ]!
1u!
#1795
0u!
#1800
b00000000000000000000000010100011 ]!
1u!
#1805
0u!
#1810
b00000000000000000000000010100100 ]!
1u!
#1815
0u!
#1820
b00000000000000000000000010100101 ]!
1u!
17"
#1825
0u!
#1830
b00000000000000000000000010100110 ]!
1u!
07"
#1835
0u!
#1840
b00000000000000000000000010100111 ]!
1u!
17"
#1845
0u!
#1850
b00000000000000000000000010101000 ]!
1u!
07"
#1855
0u!
#1860
b00000000000000000000000010101001 ]!
1u!
#1865
0u!
#1870
b00000000000000000000000010101010 ]!
1u!
17"
#1875
0u!
#1880
b00000000000000000000000010101011 ]!
1u!
07"
#1885
0u!
#1890
b00000000000000000000000010101100 ]!
1u!
17"
#1895
0u!
#1900
b00000000000000000000000010101101 ]!
1u!
07"
#1905
0u!
#1910
b00000000000000000000000010101110 ]!
1u!
#1915
0u!
#1920
b00000000000000000000000010101111 ]!
1u!
17"
#1925
0u!
#1930
b00000000000000000000000010110000 ]!
1u!
#1935
0u!
#1940
b00000000000000000000000010110001 ]!
1u!
07"
#1945
0u!
#1950
b00000000000000000000000010110010 ]!
1u!
17"
#1955
0u!
#1960
b00000000000000000000000010110011 ]!
1u!
07"
#1965
0u!
#1970
b00000000000000000000000010110100 ]!
1u!
17"
#1975
0u!
#1980
b00000000000000000000000010110101 ]!
1u!
#1985
0u!
#1990
b00000000000000000000000010110110 ]!
1u!
07"
#1995
0u!
#2000
b00000000000000000000000010110111 ]!
1u!
17"
#2005
0u!
#2010
b00000000000000000000000010111000 ]!
1u!
07"
#2015
0u!
#2020
b00000000000000000000000010111001 ]!
1u!
#2025
0u!
#2030
b00000000000000000000000010111010 ]!
1u!
17"
#2035
0u!
#2040
b00000000000000000000000010111011 ]!
1u!
#2045
0u!
#2050
b00000000000000000000000010111100 ]!
1u!
07"
#2055
0u!
#2060
b00000000000000000000000010111101 ]!
1u!
#2065
0u!
#2070
b00000000000000000000000010111110 ]!
1u!
17"
#2075
0u!
#2080
b00000000000000000000000010111111 ]!
1u!
07"
#2085
0u!
#2090
b00000000000000000000000011000000 ]!
1u!
#2095
0u!
#2100
b00000000000000000000000011000001 ]!
1u!
17"
#2105
0u!
#2110
b00000000000000000000000011000010 ]!
1u!
#2115
0u!
#2120
b00000000000000000000000011000011 ]!
1u!
07"
#2125
0u!
#2130
b00000000000000000000000011000100 ]!
1u!
17"
#2135
0u!
#2140
b00000000000000000000000011000101 ]!
1u!
07"
#2145
0u!
#2150
b00000000000000000000000011000110 ]!
1u!
17"
#2155
0u!
#2160
b00000000000000000000000011000111 ]!
1u!
#2165
0u!
#2170
b00000000000000000000000011001000 ]!
1u!
07"
#2175
0u!
#2180
b00000000000000000000000011001001 ]!
1u!
17"
#2185
0u!
#2190
b00000000000000000000000011001010 ]!
1u!
#2195
0u!
#2200
b00000000000000000000000011001011 ]!
1u!
07"
#2205
0u!
#2210
b00000000000000000000000011001100 ]!
1u!
17"
#2215
0u!
#2220
b00000000000000000000000011001101 ]!
1u!
#2225
0u!
#2230
b00000000000000000000000011001110 ]!
1u!
#2235
0u!
#2240
b00000000000000000000000011001111 ]!
1u!
07"
#2245
0u!
#2250
b00000000000000000000000011010000 ]!
1u!
#2255
0u!
#2260
b00000000000000000000000011010001 ]!
1u!
#2265
0u!
#2270
b00000000000000000000000011010010 ]!
1u!
#2275
0u!
#2280
b00000000000000000000000011010011 ]!
1u!
#2285
0u!
#2290
b00000000000000000000000011010100 ]!
1u!
#2295
0u!
#2300
b00000000000000000000000011010101 ]!
1u!
17"
#2305
0u!
#2310
b00000000000000000000000011010110 ]!
1u!
07"
#2315
0u!
#2320
b00000000000000000000000011010111 ]!
1u!
17"
#2325
0u!
#2330
b00000000000000000000000011011000 ]!
1u!
#2335
0u!
#2340
b00000000000000000000000011011001 ]!
1u!
#2345
0u!
#2350
b00000000000000000000000011011010 ]!
1u!
#2355
0u!
#2360
b00000000000000000000000011011011 ]!
1u!
#2365
0u!
#2370
b00000000000000000000000011011100 ]!
1u!
07"
#2375
0u!
#2380
b00000000000000000000000011011101 ]!
1u!
17"
#2385
0u!
#2390
b00000000000000000000000011011110 ]!
1u!
07"
#2395
0u!
#2400
b00000000000000000000000011011111 ]!
1u!
17"
#2405
0u!
#2410
b00000000000000000000000011100000 ]!
1u!
07"
#2415
0u!
#2420
b00000000000000000000000011100001 ]!
1u!
#2425
0u!
#2430
b00000000000000000000000011100010 ]!
1u!
#2435
0u!
#2440
b00000000000000000000000011100011 ]!
1u!
#2445
0u!
#2450
b00000000000000000000000011100100 ]!
1u!
#2455
0u!
#2460
b00000000000000000000000011100101 ]!
1u!
#2465
0u!
#2470
b00000000000000000000000011100110 ]!
1u!
#2475
0u!
#2480
b00000000000000000000000011100111 ]!
1u!
17"
#2485
0u!
#2490
b00000000000000000000000011101000 ]!
1u!
07"
#2495
0u!
#2500
b00000000000000000000000011101001 ]!
1u!
#2505
0u!
#2510
b00000000000000000000000011101010 ]!
1u!
#2515
0u!
#2520
b00000000000000000000000011101011 ]!
1u!
17"
#2525
0u!
#2530
b00000000000000000000000011101100 ]!
1u!
07"
#2535
0u!
#2540
b00000000000000000000000011101101 ]!
1u!
17"
#2545
0u!
#2550
b00000000000000000000000011101110 ]!
1u!
#2555
0u!
#2560
b00000000000000000000000011101111 ]!
1u!
07"
#2565
0u!
#2570
b00000000000000000000000011110000 ]!
1u!
17"
#2575
0u!
#2580
b00000000000000000000000011110001 ]!
1u!
07"
#2585
0u!
#2590
b00000000000000000000000011110010 ]!
1u!
17"
#2595
0u!
#2600
b00000000000000000000000011110011 ]!
1u!
07"
#2605
0u!
#2610
b00000000000000000000000011110100 ]!
1u!
#2615
0u!
#2620
b00000000000000000000000011110101 ]!
1u!
#2625
0u!
#2630
b00000000000000000000000011110110 ]!
1u!
17"
#2635
0u!
#2640
b00000000000000000000000011110111 ]!
1u!
07"
#2645
0u!
#2650
b00000000000000000000000011111000 ]!
1u!
17"
#2655
0u!
#2660
b00000000000000000000000011111001 ]!
1u!
#2665
0u!
#2670
b00000000000000000000000011111010 ]!
1u!
07"
#2675
0u!
#2680
b00000000000000000000000011111011 ]!
1u!
#2685
0u!
#2690
b00000000000000000000000011111100 ]!
1u!
17"
#2695
0u!
#2700
b00000000000000000000000011111101 ]!
1u!
#2705
0u!
#2710
b00000000000000000000000011111110 ]!
1u!
07"
#2715
0u!
#2720
b00000000000000000000000011111111 ]!
1u!
#2725
0u!
#2730
b00000000000000000000000100000000 ]!
1u!
17"
#2735
0u!
#2740
b00000000000000000000000100000001 ]!
1u!
07"
#2745
0u!
#2750
b00000000000000000000000100000010 ]!
1u!
#2755
0u!
#2760
b00000000000000000000000100000011 ]!
1u!
#2765
0u!
#2770
b00000000000000000000000100000100 ]!
1u!
#2775
0u!
#2780
b00000000000000000000000100000101 ]!
1u!
17"
#2785
0u!
#2790
b00000000000000000000000100000110 ]!
1u!
07"
#2795
0u!
#2800
b00000000000000000000000100000111 ]!
1u!
17"
#2805
0u!
#2810
b00000000000000000000000100001000 ]!
1u!
07"
#2815
0u!
#2820
b00000000000000000000000100001001 ]!
1u!
17"
#2825
0u!
#2830
b00000000000000000000000100001010 ]!
1u!
#2835
0u!
#2840
b00000000000000000000000100001011 ]!
1u!
07"
#2845
0u!
#2850
b00000000000000000000000100001100 ]!
1u!
17"
#2855
0u!
#2860
b00000000000000000000000100001101 ]!
1u!
#2865
0u!
#2870
b00000000000000000000000100001110 ]!
1u!
#2875
0u!
#2880
b00000000000000000000000100001111 ]!
1u!
#2885
0u!
#2890
b00000000000000000000000100010000 ]!
1u!
07"
#2895
0u!
#2900
b00000000000000000000000100010001 ]!
1u!
#2905
0u!
#2910
b00000000000000000000000100010010 ]!
1u!
#2915
0u!
#2920
b00000000000000000000000100010011 ]!
1u!
17"
#2925
0u!
#2930
b00000000000000000000000100010100 ]!
1u!
#2935
0u!
#2940
b00000000000000000000000100010101 ]!
1u!
07"
#2945
0u!
#2950
b00000000000000000000000100010110 ]!
1u!
#2955
0u!
#2960
b00000000000000000000000100010111 ]!
1u!
17"
#2965
0u!
#2970
b00000000000000000000000100011000 ]!
1u!
#2975
0u!
#2980
b00000000000000000000000100011001 ]!
1u!
#2985
0u!
#2990
b00000000000000000000000100011010 ]!
1u!
#2995
0u!
#3000
b00000000000000000000000100011011 ]!
1u!
07"
#3005
0u!
#3010
b00000000000000000000000100011100 ]!
1u!
17"
#3015
0u!
#3020
b00000000000000000000000100011101 ]!
1u!
07"
#3025
0u!
#3030
b00000000000000000000000100011110 ]!
1u!
#3035
0u!
#3040
b00000000000000000000000100011111 ]!
1u!
17"
#3045
0u!
#3050
b00000000000000000000000100100000 ]!
1u!
#3055
0u!
#3060
b00000000000000000000000100100001 ]!
1u!
#3065
0u!
#3070
b00000000000000000000000100100010 ]!
1u!
#3075
0u!
#3080
b00000000000000000000000100100011 ]!
1u!
#3085
0u!
#3090
b00000000000000000000000100100100 ]!
1u!
#3095
0u!
#3100
b00000000000000000000000100100101 ]!
1u!
07"
#3105
0u!
#3110
b00000000000000000000000100100110 ]!
1u!
#3115
0u!
#3120
b00000000000000000000000100100111 ]!
1u!
17"
#3125
0u!
#3130
b00000000000000000000000100101000 ]!
1u!
#3135
0u!
#3140
b00000000000000000000000100101001 ]!
1u!
07"
#3145
0u!
#3150
b00000000000000000000000100101010 ]!
1u!
17"
#3155
0u!
#3160
b00000000000000000000000100101011 ]!
1u!
07"
#3165
0u!
#3170
b00000000000000000000000100101100 ]!
1u!
#3175
0u!
#3180
b00000000000000000000000100101101 ]!
1u!
#3185
0u!
#3190
b00000000000000000000000100101110 ]!
1u!
17"
#3195
0u!
#3200
b00000000000000000000000100101111 ]!
1u!
07"
#3205
0u!
#3210
b00000000000000000000000100110000 ]!
1u!
17"
#3215
0u!
#3220
b00000000000000000000000100110001 ]!
1u!
07"
#3225
0u!
#3230
b00000000000000000000000100110010 ]!
1u!
#3235
0u!
#3240
b00000000000000000000000100110011 ]!
1u!
#3245
0u!
#3250
b00000000000000000000000100110100 ]!
1u!
#3255
0u!
#3260
b00000000000000000000000100110101 ]!
1u!
17"
#3265
0u!
#3270
b00000000000000000000000100110110 ]!
1u!
07"
#3275
0u!
#3280
b00000000000000000000000100110111 ]!
1u!
#3285
0u!
#3290
b00000000000000000000000100111000 ]!
1u!
17"
#3295
0u!
#3300
b00000000000000000000000100111001 ]!
1u!
#3305
0u!
#3310
b00000000000000000000000100111010 ]!
1u!
07"
#3315
0u!
#3320
b00000000000000000000000100111011 ]!
1u!
#3325
0u!
#3330
b00000000000000000000000100111100 ]!
1u!
17"
#3335
0u!
#3340
b00000000000000000000000100111101 ]!
1u!
07"
#3345
0u!
#3350
b00000000000000000000000100111110 ]!
1u!
17"
#3355
0u!
#3360
b00000000000000000000000100111111 ]!
1u!
#3365
0u!
#3370
b00000000000000000000000101000000 ]!
1u!
07"
#3375
0u!
#3380
b00000000000000000000000101000001 ]!
1u!
#3385
0u!
#3390
b00000000000000000000000101000010 ]!
1u!
17"
#3395
0u!
#3400
b00000000000000000000000101000011 ]!
1u!
07"
#3405
0u!
#3410
b00000000000000000000000101000100 ]!
1u!
#3415
0u!
#3420
b00000000000000000000000101000101 ]!
1u!
#3425
0u!
#3430
b00000000000000000000000101000110 ]!
1u!
17"
#3435
0u!
#3440
b00000000000000000000000101000111 ]!
1u!
#3445
0u!
#3450
b00000000000000000000000101001000 ]!
1u!
07"
#3455
0u!
#3460
b00000000000000000000000101001001 ]!
1u!
#3465
0u!
#3470
b00000000000000000000000101001010 ]!
1u!
17"
#3475
0u!
#3480
b00000000000000000000000101001011 ]!
1u!
07"
#3485
0u!
#3490
b00000000000000000000000101001100 ]!
1u!
#3495
0u!
#3500
b00000000000000000000000101001101 ]!
1u!
17"
#3505
0u!
#3510
b00000000000000000000000101001110 ]!
1u!
07"
#3515
0u!
#3520
b00000000000000000000000101001111 ]!
1u!
#3525
0u!
#3530
b00000000000000000000000101010000 ]!
1u!
17"
#3535
0u!
#3540
b00000000000000000000000101010001 ]!
1u!
07"
#3545
0u!
#3550
b00000000000000000000000101010010 ]!
1u!
#3555
0u!
#3560
b00000000000000000000000101010011 ]!
1u!
#3565
0u!
#3570
b00000000000000000000000101010100 ]!
1u!
#3575
0u!
#3580
b00000000000000000000000101010101 ]!
1u!
17"
#3585
0u!
#3590
b00000000000000000000000101010110 ]!
1u!
#3595
0u!
#3600
b00000000000000000000000101010111 ]!
1u!
07"
#3605
0u!
#3610
b00000000000000000000000101011000 ]!
1u!
17"
#3615
0u!
#3620
b00000000000000000000000101011001 ]!
1u!
#3625
0u!
#3630
b00000000000000000000000101011010 ]!
1u!
07"
#3635
0u!
#3640
b00000000000000000000000101011011 ]!
1u!
17"
#3645
0u!
#3650
b00000000000000000000000101011100 ]!
1u!
07"
#3655
0u!
#3660
b00000000000000000000000101011101 ]!
1u!
#3665
0u!
#3670
b00000000000000000000000101011110 ]!
1u!
#3675
0u!
#3680
b00000000000000000000000101011111 ]!
1u!
#3685
0u!
#3690
b00000000000000000000000101100000 ]!
1u!
#3695
0u!
#3700
b00000000000000000000000101100001 ]!
1u!
#3705
0u!
#3710
b00000000000000000000000101100010 ]!
1u!
#3715
0u!
#3720
b00000000000000000000000101100011 ]!
1u!
#3725
0u!
#3730
b00000000000000000000000101100100 ]!
1u!
#3735
0u!
#3740
b00000000000000000000000101100101 ]!
1u!
17"
#3745
0u!
#3750
b00000000000000000000000101100110 ]!
1u!
07"
#3755
0u!
#3760
b00000000000000000000000101100111 ]!
1u!
#3765
0u!
#3770
b00000000000000000000000101101000 ]!
1u!
#3775
0u!
#3780
b00000000000000000000000101101001 ]!
1u!
#3785
0u!
#3790
b00000000000000000000000101101010 ]!
1u!
#3795
0u!
#3800
b00000000000000000000000101101011 ]!
1u!
17"
#3805
0u!
#3810
b00000000000000000000000101101100 ]!
1u!
#3815
0u!
#3820
b00000000000000000000000101101101 ]!
1u!
07"
#3825
0u!
#3830
b00000000000000000000000101101110 ]!
1u!
#3835
0u!
#3840
b00000000000000000000000101101111 ]!
1u!
#3845
0u!
#3850
b00000000000000000000000101110000 ]!
1u!
#3855
0u!
#3860
b00000000000000000000000101110001 ]!
1u!
#3865
0u!
#3870
b00000000000000000000000101110010 ]!
1u!
17"
#3875
0u!
