simWorkspace/FiberTxBuffer/test.vcd
$version Generated by VerilatedVcd $end
$date Tue Mar 01 15:24:37 2022
 $end
$timescale   1ns $end

 $scope module TOP $end
  $var wire  1 C$ io_pop_last $end
  $var wire 32 ;$ io_pop_stream_payload [31:0] $end
  $var wire  1 3$ io_pop_stream_ready $end
  $var wire  1 +$ io_pop_stream_valid $end
  $var wire  8 #$ io_push_stream_payload_fragment [7:0] $end
  $var wire  1 y# io_push_stream_payload_last $end
  $var wire  1 q# io_push_stream_ready $end
  $var wire  1 i# io_push_stream_valid $end
  $var wire  1 [$ popclk_clk $end
  $var wire  1 c$ popclk_reset $end
  $var wire  1 K$ pushclk_clk $end
  $var wire  1 S$ pushclk_reset $end
  $scope module FiberTxBuffer $end
   $var wire  1 C$ io_pop_last $end
   $var wire 32 ;$ io_pop_stream_payload [31:0] $end
   $var wire  1 3$ io_pop_stream_ready $end
   $var wire  1 +$ io_pop_stream_valid $end
   $var wire  1 s io_push_stream_fire $end
   $var wire  1 k$ io_push_stream_fire_1 $end
   $var wire  8 #$ io_push_stream_payload_fragment [7:0] $end
   $var wire  1 y# io_push_stream_payload_last $end
   $var wire  1 q# io_push_stream_ready $end
   $var wire  1 i# io_push_stream_valid $end
   $var wire  1 3 popToPush_io_input_ready $end
   $var wire  7 _" popToPush_io_output_payload [6:0] $end
   $var wire  1 # popToPush_io_output_valid $end
   $var wire  1 =! pop_cleanup $end
   $var wire  1 K pop_cmd_fire $end
   $var wire  6 o" pop_cmd_payload [5:0] $end
   $var wire  1 { pop_cmd_ready $end
   $var wire  1 C pop_cmd_valid $end
   $var wire  7 g" pop_currentPtr [6:0] $end
   $var wire  7 5! pop_pushPtr [6:0] $end
   $var wire  1 [$ popclk_clk $end
   $var wire  1 c$ popclk_reset $end
   $var wire  1 %! pushToPop_io_input_ready $end
   $var wire  7 U! pushToPop_io_output_payload [6:0] $end
   $var wire  1 ; pushToPop_io_output_valid $end
   $var wire 24 W" push_buffer [23:0] $end
   $var wire  1 }! push_cleanup $end
   $var wire  1 '" push_commit $end
   $var wire  7 ]! push_currentPtr [6:0] $end
   $var wire  1 k push_doWrite $end
   $var wire  1 u! push_drop $end
   $var wire  1 + push_full $end
   $var wire  7 m! push_length [6:0] $end
   $var wire  7 e! push_popPtr [6:0] $end
   $var wire  6 [ push_port_payload_address [5:0] $end
   $var wire 32 c push_port_payload_data [31:0] $end
   $var wire  1 S push_port_valid $end
   $var wire  2 9# push_state [1:0] $end
   $var wire  1 K$ pushclk_clk $end
   $var wire  1 S$ pushclk_reset $end
   $var wire  1 A# when_FiberTxBuffer_l61 $end
   $var wire  1 I# when_FiberTxBuffer_l61_1 $end
   $var wire  1 Q# when_FiberTxBuffer_l61_2 $end
   $var wire  1 Y# when_FiberTxBuffer_l64 $end
   $var wire  1 -! when_FiberTxBuffer_l86 $end
   $scope module popToPush $end
    $var wire  1 3 io_input_fire $end
    $var wire  7 g" io_input_payload [6:0] $end
    $var wire  1 3 io_input_ready $end
    $var wire  1 s$ io_input_valid $end
    $var wire  7 _" io_output_payload [6:0] $end
    $var wire  1 s$ io_output_ready $end
    $var wire  1 # io_output_valid $end
    $var wire  1 7" outHitSignal $end
    $var wire  1 E! outHitSignal_buffercc_io_dataOut $end
    $var wire  1 7" popArea_hit $end
    $var wire  1 # popArea_stream_fire $end
    $var wire  7 _" popArea_stream_payload [6:0] $end
    $var wire  1 s$ popArea_stream_ready $end
    $var wire  1 # popArea_stream_valid $end
    $var wire  1 /" popArea_target $end
    $var wire  1 [$ popclk_clk $end
    $var wire  1 c$ popclk_reset $end
    $var wire  1 3 pushArea_accept $end
    $var wire  7 _" pushArea_data [6:0] $end
    $var wire  1 E! pushArea_hit $end
    $var wire  1 w" pushArea_target $end
    $var wire  1 /" pushArea_target_buffercc_io_dataOut $end
    $var wire  1 K$ pushclk_clk $end
    $var wire  1 S$ pushclk_reset $end
    $scope module outHitSignal_buffercc $end
     $var wire  1 M! buffers_0 $end
     $var wire  1 E! buffers_1 $end
     $var wire  1 7" io_dataIn $end
     $var wire  1 E! io_dataOut $end
     $var wire  1 [$ popclk_clk $end
     $var wire  1 c$ popclk_reset $end
    $upscope $end
    $scope module pushArea_target_buffercc $end
     $var wire  1 ?" buffers_0 $end
     $var wire  1 /" buffers_1 $end
     $var wire  1 w" io_dataIn $end
     $var wire  1 /" io_dataOut $end
     $var wire  1 K$ pushclk_clk $end
     $var wire  1 S$ pushclk_reset $end
    $upscope $end
   $upscope $end
   $scope module pushToPop $end
    $var wire  1 %! io_input_fire $end
    $var wire  7 ]! io_input_payload [6:0] $end
    $var wire  1 %! io_input_ready $end
    $var wire  1 s$ io_input_valid $end
    $var wire  7 U! io_output_payload [6:0] $end
    $var wire  1 s$ io_output_ready $end
    $var wire  1 ; io_output_valid $end
    $var wire  1 )# outHitSignal $end
    $var wire  1 G" outHitSignal_buffercc_io_dataOut $end
    $var wire  1 )# popArea_hit $end
    $var wire  1 ; popArea_stream_fire $end
    $var wire  7 U! popArea_stream_payload [6:0] $end
    $var wire  1 s$ popArea_stream_ready $end
    $var wire  1 ; popArea_stream_valid $end
    $var wire  1 !# popArea_target $end
    $var wire  1 [$ popclk_clk $end
    $var wire  1 c$ popclk_reset $end
    $var wire  1 %! pushArea_accept $end
    $var wire  7 U! pushArea_data [6:0] $end
    $var wire  1 G" pushArea_hit $end
    $var wire  1 a# pushArea_target $end
    $var wire  1 !# pushArea_target_buffercc_io_dataOut $end
    $var wire  1 K$ pushclk_clk $end
    $var wire  1 S$ pushclk_reset $end
    $scope module outHitSignal_buffercc $end
     $var wire  1 O" buffers_0 $end
     $var wire  1 G" buffers_1 $end
     $var wire  1 )# io_dataIn $end
     $var wire  1 G" io_dataOut $end
     $var wire  1 K$ pushclk_clk $end
     $var wire  1 S$ pushclk_reset $end
    $upscope $end
    $scope module pushArea_target_buffercc $end
     $var wire  1 1# buffers_0 $end
     $var wire  1 !# buffers_1 $end
     $var wire  1 a# io_dataIn $end
     $var wire  1 !# io_dataOut $end
     $var wire  1 [$ popclk_clk $end
     $var wire  1 c$ popclk_reset $end
    $upscope $end
   $upscope $end
  $upscope $end
 $upscope $end
$enddefinitions $end


#0
0#
0+
13
0;
0C
0K
0S
b000001 [
b00100010011110010001011101111011 c
0k
0s
1{
1%!
0-!
b0000000 5!
0=!
0E!
0M!
b0000000 U!
b0000000 ]!
b0000000 e!
b0000000 m!
0u!
0}!
0'"
0/"
07"
0?"
0G"
0O"
b001001010000101010100111 W"
b0000000 _"
b0000000 g"
b000000 o"
0w"
0!#
0)#
01#
b00 9#
1A#
0I#
0Q#
0Y#
0a#
0i#
1q#
0y#
b00001110 #$
0+$
13$
b10110110010000101111101000100001 ;$
0C$
0K$
1S$
0[$
1c$
0k$
1s$
#160
0S$
0c$
#170
03
0%!
1w"
1a#
b11101110111011100100011110011110 ;$
1K$
1[$
#175
0K$
0[$
#180
1?"
11#
1K$
1[$
#185
0K$
0[$
#190
1#
1;
1/"
1!#
1K$
1[$
#195
0K$
0[$
#200
0#
0;
17"
1)#
1K$
1[$
#205
0K$
0[$
#210
1M!
1O"
1K$
1[$
#215
0K$
0[$
#220
13
1%!
1E!
1G"
1K$
1[$
#225
0K$
0[$
#230
03
0%!
0w"
0a#
1K$
1[$
#235
0K$
0[$
#240
0?"
01#
1K$
1[$
#245
0K$
0[$
#250
1#
1;
0/"
0!#
1K$
1[$
#255
0K$
0[$
#260
0#
0;
07"
0)#
1K$
1[$
#265
0K$
0[$
#270
0M!
0O"
1K$
1[$
#275
0K$
0[$
#280
13
1%!
0E!
0G"
1K$
1[$
#285
0K$
0[$
#290
03
0%!
1w"
1a#
1K$
1[$
#295
0K$
0[$
#300
1?"
11#
1K$
1[$
#305
0K$
0[$
#310
1#
1;
1/"
1!#
1K$
1[$
#315
0K$
0[$
#320
0#
0;
17"
1)#
1K$
1[$
#325
0K$
0[$
#330
1M!
1O"
1K$
1[$
#335
0K$
0[$
#340
13
1%!
1E!
1G"
1K$
1[$
#345
0K$
0[$
#350
03
0%!
0w"
0a#
1K$
1[$
#355
0K$
0[$
#360
1s
0?"
01#
1i#
b00010010 #$
1K$
1[$
1k$
#365
0K$
0[$
#370
1#
1;
0/"
b000100100000101010100111 W"
0!#
b01 9#
0A#
1I#
b00110100 #$
1K$
1[$
#375
0K$
0[$
#380
0#
0;
07"
b000100100011010010100111 W"
0)#
b10 9#
0I#
1Q#
b01010110 #$
1K$
1[$
#385
0K$
0[$
#390
1S
b000000 [
b00010010001101000101011001111000 c
1k
0M!
0O"
b000100100011010001010110 W"
b11 9#
0Q#
1Y#
b01111000 #$
1K$
1[$
#395
0K$
0[$
#400
13
0S
b000001 [
b00100010011110010001011101111011 c
0k
1%!
0E!
b0000001 ]!
b0000001 m!
0G"
b00 9#
1A#
0Y#
b00010010 #$
1K$
1[$
#405
0K$
0[$
#410
03
0%!
b0000001 U!
1w"
b01 9#
0A#
1I#
1a#
b00110100 #$
b00010010001101000101011001111000 ;$
1K$
1[$
#415
0K$
0[$
#420
1?"
11#
b10 9#
0I#
1Q#
b01010110 #$
1K$
1[$
#425
0K$
0[$
#430
1#
1;
1S
b00010010001101000101011001111000 c
1k
1/"
1!#
b11 9#
0Q#
1Y#
b01111000 #$
1K$
1[$
#435
0K$
0[$
#440
0#
0;
1C
1K
0S
b00100010011110010001011101111011 c
0k
b0000001 5!
b0000010 ]!
b0000010 m!
17"
1)#
b00 9#
1A#
0Y#
b00000010 #$
1K$
1[$
#445
0K$
0[$
#450
0C
0K
1M!
1O"
b000000100011010001010110 W"
b0000001 g"
b000001 o"
b01 9#
0A#
1I#
b00000100 #$
1+$
1K$
1[$
#455
0K$
0[$
#460
13
1%!
1E!
1G"
b000000100000010001010110 W"
b10 9#
0I#
1Q#
b00000110 #$
0+$
1K$
1[$
#465
0K$
0[$
#470
03
1S
b000010 [
b00000010000001000000011000001000 c
1k
0%!
b0000010 U!
b000000100000010000000110 W"
b0000001 _"
0w"
b11 9#
0Q#
1Y#
0a#
1y#
b00001000 #$
1K$
1[$
#475
0K$
0[$
#480
0S
b000001 [
b00100010011110010001011101111011 c
0k
0s
b0000011 ]!
b0000011 m!
1}!
0?"
01#
b00 9#
1A#
0Y#
0i#
0q#
0y#
1K$
1[$
0k$
#485
0K$
0[$
#490
1#
1;
0}!
1'"
0/"
0!#
1K$
1[$
#495
0K$
0[$
#500
0#
0;
1C
1K
b0000010 5!
b0000001 e!
0'"
07"
0)#
1q#
1K$
1[$
#505
0K$
0[$
#510
0C
0K
0M!
0O"
b0000010 g"
b000010 o"
1+$
1K$
1[$
#515
0K$
0[$
#520
13
1%!
0E!
0G"
0+$
b00000010000001000000011000001000 ;$
1K$
1[$
#525
0K$
0[$
#530
03
0%!
b0000011 U!
b0000010 _"
1w"
1a#
1K$
1[$
#535
0K$
0[$
#540
1?"
11#
1K$
1[$
#545
0K$
0[$
#550
1#
1;
1/"
1!#
1K$
1[$
#555
0K$
0[$
#560
0#
0;
1C
1K
b0000011 5!
b0000010 e!
17"
1)#
1K$
1[$
#565
0K$
0[$
#570
0C
0K
1M!
1O"
b0000011 g"
b000011 o"
1+$
1C$
1K$
1[$
#575
0K$
0[$
#580
13
1%!
1=!
1E!
1G"
0+$
b10001101000001001111001100011000 ;$
0C$
1K$
1[$
#585
0K$
0[$
#590
03
0%!
0=!
b0000011 _"
0w"
0a#
1K$
1[$
#595
0K$
0[$
#600
0?"
01#
1K$
1[$
#605
0K$
0[$
#610
1#
1;
0/"
0!#
1K$
1[$
#615
0K$
0[$
#620
0#
0;
b0000011 e!
07"
0)#
1K$
1[$
#625
0K$
0[$
#630
0M!
0O"
1K$
1[$
#635
0K$
0[$
#640
13
1%!
0E!
0G"
1K$
1[$
#645
0K$
0[$
#650
03
0%!
1w"
1a#
1K$
1[$
#655
0K$
0[$
#660
1?"
11#
1K$
1[$
#665
0K$
0[$
#670
1#
1;
1/"
1!#
1K$
1[$
#675
0K$
0[$
#680
0#
0;
17"
1)#
1K$
1[$
#685
0K$
0[$
#690
1M!
1O"
1K$
1[$
#695
0K$
0[$
#700
13
1%!
1E!
1G"
1K$
1[$
#705
0K$
0[$
#710
03
0%!
0w"
0a#
1K$
1[$
#715
0K$
0[$
#720
0?"
01#
1K$
1[$
#725
0K$
0[$
#730
1#
1;
0/"
0!#
1K$
1[$
#735
0K$
0[$
#740
0#
0;
07"
0)#
1K$
1[$
#745
0K$
0[$
#750
0M!
0O"
1K$
1[$
#755
0K$
0[$
#760
13
1%!
0E!
0G"
1K$
1[$
#765
0K$
0[$
#770
03
0%!
1w"
1a#
1K$
1[$
#775
0K$
0[$
#780
1?"
11#
1K$
1[$
#785
0K$
0[$
#790
1#
1;
1/"
1!#
1K$
1[$
#795
0K$
0[$
#800
0#
0;
17"
1)#
1K$
1[$
#805
0K$
0[$
#810
1M!
1O"
1K$
1[$
#815
0K$
0[$
#820
13
1%!
1E!
1G"
1K$
1[$
#825
0K$
0[$
#830
03
0%!
0w"
0a#
1K$
1[$
#835
0K$
0[$
#840
0?"
01#
1K$
1[$
#845
0K$
0[$
#850
1#
1;
0/"
0!#
1K$
1[$
#855
0K$
0[$
#860
0#
0;
07"
0)#
1K$
1[$
#865
0K$
0[$
#870
0M!
0O"
1K$
1[$
#875
0K$
0[$
#880
13
1%!
0E!
0G"
1K$
1[$
#885
0K$
0[$
#890
03
0%!
1w"
1a#
1K$
1[$
#895
0K$
0[$
#900
1?"
11#
1K$
1[$
#905
0K$
0[$
#910
1#
1;
1/"
1!#
1K$
1[$
#915
0K$
0[$
#920
0#
0;
17"
1)#
1K$
1[$
#925
0K$
0[$
#930
1M!
1O"
1K$
1[$
#935
0K$
0[$
#940
13
1%!
1E!
1G"
1K$
1[$
#945
0K$
0[$
#950
03
0%!
0w"
0a#
1K$
1[$
#955
0K$
0[$
#960
0?"
01#
1K$
1[$
#965
0K$
0[$
#970
1#
1;
0/"
0!#
1K$
1[$
#975
0K$
0[$
#980
0#
0;
07"
0)#
1K$
1[$
#985
0K$
0[$
#990
0M!
0O"
1K$
1[$
#995
0K$
0[$
#1000
13
1%!
0E!
0G"
1K$
1[$
#1005
0K$
0[$
#1010
03
0%!
1w"
1a#
1K$
1[$
#1015
0K$
0[$
#1020
1?"
11#
1K$
1[$
#1025
0K$
0[$
#1030
1#
1;
1/"
1!#
1K$
1[$
#1035
0K$
0[$
#1040
0#
0;
17"
1)#
1K$
1[$
#1045
0K$
0[$
#1050
1M!
1O"
1K$
1[$
#1055
0K$
0[$
#1060
13
1%!
1E!
1G"
1K$
1[$
#1065
0K$
0[$
#1070
03
0%!
0w"
0a#
1K$
1[$
#1075
0K$
0[$
#1080
0?"
01#
1K$
1[$
#1085
0K$
0[$
#1090
1#
1;
0/"
0!#
1K$
1[$
#1095
0K$
0[$
#1100
0#
0;
07"
0)#
1K$
1[$
#1105
0K$
0[$
#1110
0M!
0O"
1K$
1[$
#1115
0K$
0[$
#1120
13
1%!
0E!
0G"
1K$
1[$
#1125
0K$
0[$
#1130
03
0%!
1w"
1a#
1K$
1[$
#1135
0K$
0[$
#1140
1?"
11#
1K$
1[$
#1145
0K$
0[$
#1150
1#
1;
1/"
1!#
1K$
1[$
#1155
0K$
0[$
#1160
0#
0;
17"
1)#
1K$
1[$
#1165
0K$
0[$
#1170
1M!
1O"
1K$
1[$
#1175
0K$
0[$
#1180
13
1%!
1E!
1G"
1K$
1[$
#1185
0K$
0[$
#1190
03
0%!
0w"
0a#
1K$
1[$
#1195
0K$
0[$
#1200
0?"
01#
1K$
1[$
#1205
0K$
0[$
#1210
1#
1;
0/"
0!#
1K$
1[$
#1215
0K$
0[$
#1220
0#
0;
07"
0)#
1K$
1[$
#1225
0K$
0[$
#1230
0M!
0O"
1K$
1[$
#1235
0K$
0[$
#1240
13
1%!
0E!
0G"
1K$
1[$
#1245
0K$
0[$
#1250
03
0%!
1w"
1a#
1K$
1[$
#1255
0K$
0[$
#1260
1?"
11#
1K$
1[$
#1265
0K$
0[$
#1270
1#
1;
1/"
1!#
1K$
1[$
#1275
0K$
0[$
#1280
0#
0;
17"
1)#
1K$
1[$
#1285
0K$
0[$
#1290
1M!
1O"
1K$
1[$
#1295
0K$
0[$
#1300
13
1%!
1E!
1G"
1K$
1[$
#1305
0K$
0[$
#1310
03
0%!
0w"
0a#
1K$
1[$
#1315
0K$
0[$
#1320
0?"
01#
1K$
1[$
#1325
0K$
0[$
#1330
1#
1;
0/"
0!#
1K$
1[$
#1335
0K$
0[$
#1340
0#
0;
07"
0)#
1K$
1[$
#1345
0K$
0[$
#1350
0M!
0O"
1K$
1[$
#1355
0K$
0[$
#1360
13
1%!
0E!
0G"
1K$
1[$
#1365
0K$
0[$
#1370
03
0%!
1w"
1a#
1K$
1[$
#1375
0K$
0[$
#1380
1?"
11#
1K$
1[$
#1385
0K$
0[$
#1390
1#
1;
1/"
1!#
1K$
1[$
#1395
0K$
0[$
#1400
0#
0;
17"
1)#
1K$
1[$
#1405
0K$
0[$
#1410
1M!
1O"
1K$
1[$
#1415
0K$
0[$
#1420
13
1%!
1E!
1G"
1K$
1[$
#1425
0K$
0[$
#1430
03
0%!
0w"
0a#
1K$
1[$
#1435
0K$
0[$
#1440
0?"
01#
1K$
1[$
#1445
0K$
0[$
#1450
1#
1;
0/"
0!#
1K$
1[$
#1455
0K$
0[$
#1460
0#
0;
07"
0)#
1K$
1[$
#1465
0K$
0[$
#1470
0M!
0O"
1K$
1[$
#1475
0K$
0[$
#1480
13
1%!
0E!
0G"
1K$
1[$
#1485
0K$
0[$
#1490
03
0%!
1w"
1a#
1K$
1[$
#1495
0K$
0[$
#1500
1?"
11#
1K$
1[$
#1505
0K$
0[$
#1510
1#
1;
1/"
1!#
1K$
1[$
#1515
0K$
0[$
#1520
0#
0;
17"
1)#
1K$
1[$
#1525
0K$
0[$
#1530
1M!
1O"
1K$
1[$
#1535
0K$
0[$
#1540
13
1%!
1E!
1G"
1K$
1[$
#1545
0K$
0[$
#1550
03
0%!
0w"
0a#
1K$
1[$
#1555
0K$
0[$
#1560
0?"
01#
1K$
1[$
#1565
0K$
0[$
#1570
1#
1;
0/"
0!#
1K$
1[$
#1575
0K$
0[$
#1580
0#
0;
07"
0)#
1K$
1[$
#1585
0K$
0[$
#1590
0M!
0O"
1K$
1[$
#1595
0K$
0[$
#1600
13
1%!
0E!
0G"
1K$
1[$
#1605
0K$
0[$
#1610
03
0%!
1w"
1a#
1K$
1[$
#1615
0K$
0[$
#1620
1?"
11#
1K$
1[$
#1625
0K$
0[$
#1630
1#
1;
1/"
1!#
1K$
1[$
#1635
0K$
0[$
#1640
0#
0;
17"
1)#
1K$
1[$
#1645
0K$
0[$
#1650
1M!
1O"
1K$
1[$
#1655
0K$
0[$
#1660
13
1%!
1E!
1G"
1K$
1[$
#1665
0K$
0[$
#1670
03
0%!
0w"
0a#
1K$
1[$
#1675
0K$
0[$
#1680
0?"
01#
1K$
1[$
#1685
0K$
0[$
#1690
1#
1;
0/"
0!#
1K$
1[$
#1695
0K$
0[$
#1700
0#
0;
07"
0)#
1K$
1[$
#1705
0K$
0[$
#1710
0M!
0O"
1K$
1[$
#1715
0K$
0[$
#1720
13
1%!
0E!
0G"
1K$
1[$
#1725
0K$
0[$
#1730
03
0%!
1w"
1a#
1K$
1[$
#1735
0K$
0[$
#1740
1?"
11#
1K$
1[$
#1745
0K$
0[$
#1750
1#
1;
1/"
1!#
1K$
1[$
#1755
0K$
0[$
#1760
0#
0;
17"
1)#
1K$
1[$
#1765
0K$
0[$
#1770
1M!
1O"
1K$
1[$
#1775
0K$
0[$
#1780
13
1%!
1E!
1G"
1K$
1[$
#1785
0K$
0[$
#1790
03
0%!
0w"
0a#
1K$
1[$
#1795
0K$
0[$
#1800
0?"
01#
1K$
1[$
#1805
0K$
0[$
#1810
1#
1;
0/"
0!#
1K$
1[$
#1815
0K$
0[$
#1820
0#
0;
07"
0)#
1K$
1[$
#1825
0K$
0[$
#1830
0M!
0O"
1K$
1[$
#1835
0K$
0[$
#1840
13
1%!
0E!
0G"
1K$
1[$
#1845
0K$
0[$
#1850
03
0%!
1w"
1a#
1K$
1[$
#1855
0K$
0[$
#1860
1?"
11#
1K$
1[$
#1865
0K$
0[$
#1870
1#
1;
1/"
1!#
1K$
1[$
#1875
0K$
0[$
#1880
0#
0;
17"
1)#
1K$
1[$
#1885
0K$
0[$
#1890
1M!
1O"
1K$
1[$
#1895
0K$
0[$
#1900
13
1%!
1E!
1G"
1K$
1[$
#1905
0K$
0[$
#1910
03
0%!
0w"
0a#
1K$
1[$
#1915
0K$
0[$
#1920
0?"
01#
1K$
1[$
#1925
0K$
0[$
#1930
1#
1;
0/"
0!#
1K$
1[$
#1935
0K$
0[$
#1940
0#
0;
07"
0)#
1K$
1[$
#1945
0K$
0[$
#1950
0M!
0O"
1K$
1[$
#1955
0K$
0[$
#1960
13
1%!
0E!
0G"
1K$
1[$
#1965
0K$
0[$
#1970
03
0%!
1w"
1a#
1K$
1[$
#1975
0K$
0[$
#1980
1?"
11#
1K$
1[$
#1985
0K$
0[$
#1990
1#
1;
1/"
1!#
1K$
1[$
#1995
0K$
0[$
#2000
0#
0;
17"
1)#
1K$
1[$
#2005
0K$
0[$
#2010
1M!
1O"
1K$
1[$
#2015
0K$
0[$
#2020
13
1%!
1E!
1G"
1K$
1[$
#2025
0K$
0[$
#2030
03
0%!
0w"
0a#
1K$
1[$
#2035
0K$
0[$
#2040
0?"
01#
1K$
1[$
#2045
0K$
0[$
#2050
1#
1;
0/"
0!#
1K$
1[$
#2055
0K$
0[$
#2060
0#
0;
07"
0)#
1K$
1[$
#2065
0K$
0[$
#2070
0M!
0O"
1K$
1[$
#2075
0K$
0[$
#2080
13
1%!
0E!
0G"
1K$
1[$
#2085
0K$
0[$
#2090
03
0%!
1w"
1a#
1K$
1[$
#2095
0K$
0[$
#2100
1?"
11#
1K$
1[$
#2105
0K$
0[$
#2110
1#
1;
1/"
1!#
1K$
1[$
#2115
0K$
0[$
#2120
0#
0;
17"
1)#
1K$
1[$
#2125
0K$
0[$
#2130
1M!
1O"
1K$
1[$
#2135
0K$
0[$
#2140
13
1%!
1E!
1G"
1K$
1[$
#2145
0K$
0[$
#2150
03
0%!
0w"
0a#
1K$
1[$
#2155
0K$
0[$
#2160
0?"
01#
1K$
1[$
#2165
0K$
0[$
#2170
1#
1;
0/"
0!#
1K$
1[$
#2175
0K$
0[$
#2180
0#
0;
07"
0)#
1K$
1[$
#2185
0K$
0[$
#2190
0M!
0O"
1K$
1[$
#2195
0K$
0[$
#2200
13
1%!
0E!
0G"
1K$
1[$
#2205
0K$
0[$
#2210
03
0%!
1w"
1a#
1K$
1[$
#2215
0K$
0[$
#2220
1?"
11#
1K$
1[$
#2225
0K$
0[$
#2230
1#
1;
1/"
1!#
1K$
1[$
#2235
0K$
0[$
#2240
0#
0;
17"
1)#
1K$
1[$
#2245
0K$
0[$
#2250
1M!
1O"
1K$
1[$
#2255
0K$
0[$
#2260
13
1%!
1E!
1G"
1K$
1[$
#2265
0K$
0[$
#2270
03
0%!
0w"
0a#
1K$
1[$
#2275
0K$
0[$
#2280
0?"
01#
1K$
1[$
#2285
0K$
0[$
#2290
1#
1;
0/"
0!#
1K$
1[$
#2295
0K$
0[$
#2300
0#
0;
07"
0)#
1K$
1[$
#2305
0K$
0[$
#2310
0M!
0O"
1K$
1[$
#2315
0K$
0[$
#2320
13
1%!
0E!
0G"
1K$
1[$
#2325
0K$
0[$
#2330
03
0%!
1w"
1a#
1K$
1[$
#2335
0K$
0[$
#2340
1?"
11#
1K$
1[$
#2345
0K$
0[$
#2350
1#
1;
1/"
1!#
1K$
1[$
#2355
0K$
0[$
#2360
0#
0;
17"
1)#
1K$
1[$
#2365
0K$
0[$
#2370
1M!
1O"
1K$
1[$
#2375
0K$
0[$
#2380
13
1%!
1E!
1G"
1K$
1[$
#2385
0K$
0[$
#2390
03
0%!
0w"
0a#
1K$
1[$
#2395
0K$
0[$
#2400
0?"
01#
1K$
1[$
#2405
0K$
0[$
#2410
1#
1;
0/"
0!#
1K$
1[$
#2415
0K$
0[$
#2420
0#
0;
07"
0)#
1K$
1[$
#2425
0K$
0[$
#2430
0M!
0O"
1K$
1[$
#2435
0K$
0[$
#2440
13
1%!
0E!
0G"
1K$
1[$
#2445
0K$
0[$
#2450
03
0%!
1w"
1a#
1K$
1[$
#2455
0K$
0[$
#2460
1?"
11#
1K$
1[$
#2465
0K$
0[$
#2470
1#
1;
1/"
1!#
1K$
1[$
#2475
0K$
0[$
#2480
0#
0;
17"
1)#
1K$
1[$
#2485
0K$
0[$
#2490
1M!
1O"
1K$
1[$
#2495
0K$
0[$
#2500
13
1%!
1E!
1G"
1K$
1[$
#2505
0K$
0[$
#2510
03
0%!
0w"
0a#
1K$
1[$
#2515
0K$
0[$
#2520
0?"
01#
1K$
1[$
#2525
0K$
0[$
#2530
1#
1;
0/"
0!#
1K$
1[$
#2535
0K$
0[$
#2540
0#
0;
07"
0)#
1K$
1[$
#2545
0K$
0[$
#2550
0M!
0O"
1K$
1[$
#2555
0K$
0[$
#2560
13
1%!
0E!
0G"
1K$
1[$
#2565
0K$
0[$
#2570
03
0%!
1w"
1a#
1K$
1[$
#2575
0K$
0[$
#2580
1?"
11#
1K$
1[$
#2585
0K$
0[$
#2590
1#
1;
1/"
1!#
1K$
1[$
#2595
0K$
0[$
#2600
0#
0;
17"
1)#
1K$
1[$
#2605
0K$
0[$
#2610
1M!
1O"
1K$
1[$
#2615
0K$
0[$
#2620
13
1%!
1E!
1G"
1K$
1[$
#2625
0K$
0[$
#2630
03
0%!
0w"
0a#
1K$
1[$
#2635
0K$
0[$
#2640
0?"
01#
1K$
1[$
#2645
0K$
0[$
#2650
1#
1;
0/"
0!#
1K$
1[$
#2655
0K$
0[$
#2660
0#
0;
07"
0)#
1K$
1[$
#2665
0K$
0[$
#2670
0M!
0O"
1K$
1[$
#2675
0K$
0[$
#2680
13
1%!
0E!
0G"
1K$
1[$
#2685
0K$
0[$
#2690
03
0%!
1w"
1a#
1K$
1[$
#2695
0K$
0[$
#2700
1?"
11#
1K$
1[$
#2705
0K$
0[$
#2710
1#
1;
1/"
1!#
1K$
1[$
#2715
0K$
0[$
#2720
0#
0;
17"
1)#
1K$
1[$
#2725
0K$
0[$
#2730
1M!
1O"
1K$
1[$
#2735
0K$
0[$
#2740
13
1%!
1E!
1G"
1K$
1[$
#2745
0K$
0[$
#2750
03
0%!
0w"
0a#
1K$
1[$
#2755
0K$
0[$
#2760
0?"
01#
1K$
1[$
#2765
0K$
0[$
#2770
1#
1;
0/"
0!#
1K$
1[$
#2775
0K$
0[$
#2780
0#
0;
07"
0)#
1K$
1[$
#2785
0K$
0[$
#2790
0M!
0O"
1K$
1[$
#2795
0K$
0[$
#2800
13
1%!
0E!
0G"
1K$
1[$
#2805
0K$
0[$
#2810
03
0%!
1w"
1a#
1K$
1[$
#2815
0K$
0[$
#2820
1?"
11#
1K$
1[$
#2825
0K$
0[$
#2830
1#
1;
1/"
1!#
1K$
1[$
#2835
0K$
0[$
#2840
0#
0;
17"
1)#
1K$
1[$
#2845
0K$
0[$
#2850
1M!
1O"
1K$
1[$
#2855
0K$
0[$
#2860
13
1%!
1E!
1G"
1K$
1[$
#2865
0K$
0[$
#2870
03
0%!
0w"
0a#
1K$
1[$
#2875
0K$
0[$
#2880
0?"
01#
1K$
1[$
#2885
0K$
0[$
#2890
1#
1;
0/"
0!#
1K$
1[$
#2895
0K$
0[$
#2900
0#
0;
07"
0)#
1K$
1[$
#2905
0K$
0[$
#2910
0M!
0O"
1K$
1[$
#2915
0K$
0[$
#2920
13
1%!
0E!
0G"
1K$
1[$
#2925
0K$
0[$
#2930
03
0%!
1w"
1a#
1K$
1[$
#2935
0K$
0[$
#2940
1?"
11#
1K$
1[$
#2945
0K$
0[$
#2950
1#
1;
1/"
1!#
1K$
1[$
#2955
0K$
0[$
#2960
0#
0;
17"
1)#
1K$
1[$
#2965
0K$
0[$
#2970
1M!
1O"
1K$
1[$
#2975
0K$
0[$
#2980
13
1%!
1E!
1G"
1K$
1[$
#2985
0K$
0[$
#2990
03
0%!
0w"
0a#
1K$
1[$
#2995
0K$
0[$
#3000
0?"
01#
1K$
1[$
#3005
0K$
0[$
#3010
1#
1;
0/"
0!#
1K$
1[$
#3015
0K$
0[$
#3020
0#
0;
07"
0)#
1K$
1[$
#3025
0K$
0[$
#3030
0M!
0O"
1K$
1[$
#3035
0K$
0[$
#3040
13
1%!
0E!
0G"
1K$
1[$
#3045
0K$
0[$
#3050
03
0%!
1w"
1a#
1K$
1[$
#3055
0K$
0[$
#3060
1?"
11#
1K$
1[$
#3065
0K$
0[$
#3070
1#
1;
1/"
1!#
1K$
1[$
#3075
0K$
0[$
#3080
0#
0;
17"
1)#
1K$
1[$
#3085
0K$
0[$
#3090
1M!
1O"
1K$
1[$
#3095
0K$
0[$
#3100
13
1%!
1E!
1G"
1K$
1[$
#3105
0K$
0[$
#3110
03
0%!
0w"
0a#
1K$
1[$
#3115
0K$
0[$
#3120
0?"
01#
1K$
1[$
#3125
0K$
0[$
#3130
1#
1;
0/"
0!#
1K$
1[$
#3135
0K$
0[$
#3140
0#
0;
07"
0)#
1K$
1[$
#3145
0K$
0[$
#3150
0M!
0O"
1K$
1[$
#3155
0K$
0[$
#3160
13
1%!
0E!
0G"
1K$
1[$
#3165
0K$
0[$
#3170
03
0%!
1w"
1a#
1K$
1[$
#3175
0K$
0[$
#3180
1?"
11#
1K$
1[$
#3185
0K$
0[$
#3190
1#
1;
1/"
1!#
1K$
1[$
#3195
0K$
0[$
#3200
0#
0;
17"
1)#
1K$
1[$
